<?xml version="1.0" encoding="utf-8"?>
<!-- Generator: Adobe Illustrator 22.0.1, SVG Export Plug-In . SVG Version: 6.00 Build 0)  -->
<svg version="1.1" id="Layer_1" xmlns="http://www.w3.org/2000/svg" xmlns:xlink="http://www.w3.org/1999/xlink" x="0px" y="0px"
	 viewBox="0 0 100 100" style="enable-background:new 0 0 100 100;" xml:space="preserve">
<style type="text/css">
	.st0{fill:#808080;}
</style>
<path class="st0" d="M91.7,48.2c-0.3,0.1-0.6,0.2-0.9,0.1l0.8,0.9c0.2,0.2,0.4,0.4,0.6,0.7v0c0.2,0.3,0.4,0.6,0.6,0.9
	c0.3,0.6,0.6,1.2,0.8,1.9c0.4,1.3,0.4,2.6,0.1,3.9c-0.5,2.4-2.1,4.3-4.4,5.3c-0.6,0.2-1.2,0.4-1.8,0.4l0.1,0.1h0
	c1.1,1.1,1.8,2.5,2.2,4.1c0.4,1.5,0.3,3-0.1,4.5c-0.4,1.4-1.2,2.6-2.3,3.6c-2,2.6-5.2,3.8-8.4,3.3c0,1.5-0.4,3-1.1,4.3
	c-1,1.8-2.6,3.2-4.6,3.9c-1.1,0.4-2.2,0.5-3.3,0.4c-0.2,1.9-1,3.6-2.4,4.9c-1.2,1.8-3,3.2-5.2,3.7c-2.2,0.5-4.5,0.2-6.5-1
	c-0.6-0.4-1.2-0.8-1.6-1.3c-0.3-0.4-0.7-0.8-1-1.2c-0.6-0.8-1.3-1.6-1.9-2.4v0c-0.7-0.9-0.5-2.2,0.3-3c0.4-0.4,0.9-0.7,1.4-0.8
	c0.6,0,1.1,0.1,1.6,0.5c0.8,0.6,1.6,1.2,2.3,1.8c0.4,0.3,0.7,0.6,1.1,1v0c0.1,0.1,0.3,0.2,0.4,0.3c0.1,0.1,0.2,0.2,0.3,0.2
	c0.9,0.6,2,0.8,3,0.7c0.3-0.1,0.7-0.2,1-0.3c1.1-0.9,1.7-2.3,1.7-3.7c0-0.7-0.2-1.5-0.6-2.1c-0.3-0.4-0.6-0.9-1-1.3L61.7,81
	c-1.4-1.6-2.2-3.7-2.3-5.8c-0.1-0.7,0.3-1.4,0.9-1.7c0.4-0.2,1-0.3,1.2-0.1c1,1.1,2,2.2,3.1,3.2l1.6,1.6L67,79
	c0.3,0.3,0.5,0.5,0.9,0.9v0c0.3,0.3,0.5,0.6,0.8,1c1.9,0.5,3.9-0.2,5.1-1.8c0.2-0.3,0.3-0.5,0.5-0.8c0.1-1.3-0.3-2.5-1-3.6
	c-0.6-0.6-1.1-1.3-1.7-2c-1.9-1.9-3.7-4-5.4-6C65,65.4,64.8,64,65.6,63c0.5-0.6,1.3-0.8,2.1-0.5l7,5.5l0.2,0.2l0.7,0.6l1.5,1.5
	l0.8,0.8l0.4,0.4l0.2,0.2v0c0.6,0.5,1.3,0.9,2.1,1c0.5,0.1,1,0.1,1.5,0c1.9-0.9,2.9-3.1,2.2-5.1c-0.2-0.5-0.4-1-0.8-1.4l-1.8-2
	l-3.6-4c-2-2.2-3.5-4.8-4.2-7.7c-0.2-0.9-0.1-1.6,0.7-1.9c0.5-0.2,1-0.1,1.5,0.2c2.6,2.8,5.3,5.3,8,8c0.3,0,0.7,0,1,0.1
	c1.8,0.4,3.6-0.6,4.1-2.4c0.3-0.8,0.2-1.8-0.1-2.6c-0.2-0.4-0.4-0.8-0.8-1.1l-1.7-1.7L72.9,37.5l-6.8-6.9l-0.8-0.9
	c-0.3-0.3-0.5-0.5-0.7-0.7v0c-0.4-0.4-0.9-0.8-1.4-1.1c-0.8-0.5-1.8-0.8-2.8-0.7c-1.1,0.2-2.2,0.6-3.1,1.3c-0.6,0.4-1.1,0.8-1.6,1.3
	l-1.8,1.6c-2.4,2.2-4.7,4.3-7.1,6.4v0c-0.7,0.7-1.4,1.4-2.1,2c-0.9,0.7-2,1.3-3.1,1.6c-2.3,0.6-4.7,0.3-6.8-0.9
	c-2-1.2-3.5-3.2-4-5.5c-0.6-2.3-0.1-4.8,1.2-6.8c0.3-0.5,0.7-1,1.1-1.4l0.9-1l1.9-1.9l3.8-3.8l6.5-6.6h0c-1.2-1-2.6-1.7-4.1-2
	c-1.7-0.2-3.4-0.2-5.1,0.2c-0.3,0.2-0.5,0.5-0.7,0.7c-0.2,0.2-0.5,0.6-0.8,1l-1.7,2c-0.4,0.4-0.9,0.7-1.5,0.8
	c-0.6,0-1.2-0.1-1.6-0.5l-0.3-0.2c-0.7-0.6-1.4-1.2-2-1.8h0c-1.1-1.2-2.2-2.5-3.1-3.8c-0.5-0.9-0.3-2.1,0.5-2.8
	c0.6-0.9,1.8-1.1,2.7-0.5c1.4,0.9,2.7,2,3.8,3.2l0.1-0.1c0.4-0.5,0.8-0.9,1.2-1.3c0.5-0.5,1-0.9,1.6-1.2c1.1-0.7,2.4-1.1,3.7-1.3
	c2.5-0.3,5,0.3,7.2,1.6c1.4,0.8,2.4,2.1,2.6,3.7c0.3-0.3,0.7-0.6,1.1-0.9c0.9-0.8,1.9-1.5,3-2.1c2.1-1.2,4.5-2.1,6.9-2.6
	c1.2-0.2,2.4-0.4,3.6-0.4H65h1.6l6.6,0.2c4.9,0.1,8.3,1.1,8.6,2.4c0.3,1.3-3.6,2.1-8.3,2.3l-6.3,0.2h-1.6c-0.5,0-1.1,0-1.5,0.1h0
	c-0.9,0-1.8,0.2-2.7,0.4c-3.5,0.7-6.8,2.4-9.4,5l-8.9,8.9l-4.5,4.4l-1.1,1.1L37,30.3l-0.2,0.2l-0.1,0.2v0c-0.4,0.4-0.7,1-0.8,1.5
	c-0.4,1.5,0.2,3.1,1.5,4c1.3,0.8,3.1,0.8,4.3-0.2c0.2-0.1,0.3-0.2,0.4-0.4l0.7-0.7l1.4-1.4l2.8-2.9l2.8-2.8l1.4-1.4l0.7-0.7l0.9-0.8
	v0c1.3-1.1,2.7-2,4.2-2.6c1.7-0.7,3.6-0.9,5.5-0.5c1.7,0.4,3.4,1.1,4.7,2.3l0.9,0.8l0.8,0.8l1.4,1.4l5.5,5.8l11.1,11.6l0.6,0.6
	c1-1,1.7-2.2,3.6-2.2v0c0.5-0.8,1-1.6,1.6-2.4c0.5-0.4,1-0.7,1.6-0.9c0.3-0.1,1.1,0.4,2.1,1.3c0.9,0.9,1.3,1.6,1.2,2h0
	c-0.4,1.1-1.1,2-2.2,2.6c-0.1,0.1-0.3,0.2-0.5,0.3C94.5,47,93,47.5,91.7,48.2L91.7,48.2z M9.3,67.6c0-0.6,0.1-1.2,0.2-1.7
	C8.2,65.6,7,65.1,6,64.3c-1.7-1.3-2.9-3.1-3.4-5.2c-0.3-1.3-0.4-2.6-0.1-3.9c0.1-1.3,0.5-2.6,1.2-3.7c0.3-0.6,0.7-1.1,1.2-1.6
	l0.3-0.3l0.2-0.2l0.5-0.5L6,48.7c-0.7-0.6-1-1.5-0.9-2.4c-0.8-0.4-1.5-0.8-2.1-1.3c-0.4-0.4-0.6-0.9-0.7-1.4c-0.1-0.3,0.4-1.1,1.3-2
	c0.9-0.9,1.6-1.3,1.9-1.3c1,0.2,1.8,0.9,2.2,1.8c0.1,0.1,0.1,0.3,0.2,0.4c1,0.6,1.6,1.5,1.9,2.6c1.9-1.7,4.5-2.6,7.1-2.2
	c2.5,0.3,4.8,1.6,6.2,3.7c1.2,1.6,1.6,3.6,1.1,5.6c0,0.1,0,0.2-0.1,0.2c2.7-0.3,5.3,0.6,7.3,2.5c1.6,1.5,2.4,3.7,2.1,5.9
	c0,0.3-0.1,0.6-0.2,0.9c0.7-0.1,1.5-0.1,2.2,0c2.5,0.3,4.8,1.6,6.2,3.7c1.1,1.6,1.5,3.6,1.1,5.4c0,0.1-0.1,0.3-0.1,0.4
	c3.7-0.2,7.1,1.8,8.7,5.2c0.7,1.6,0.8,3.4,0.2,5c-0.5,1.4-1.6,2.5-3,2.9c-0.7,0.2-1.5-0.1-1.8-0.8c-0.2-0.4-0.4-0.9-0.3-1.1v0
	c0.7-0.8,0.9-2,0.6-3c-0.3-1-1-1.8-2-2.3c-1-0.4-2.2-0.4-3.2,0c-0.3,0.1-0.5,0.2-0.8,0.4c-0.1,0.1-0.3,0.2-0.4,0.3l-0.6,0.4
	l-0.4,0.2v0c-0.2,0.3-0.3,0.5-0.5,0.7c-0.5,0.6-0.9,1.1-1.4,1.7l-0.7,0.8l-0.2,0.2c-0.3,2.1,1,4.1,3,4.7c0.8,0.3,1.6,0.3,2.5,0.2
	c0.4-0.1,0.8-0.2,1.2-0.4c0.5-0.2,0.9-0.5,1.3-0.9c1-0.9,2.5-1,3.5-0.2c1.1,0.9,0.7,2.2-0.2,3.4L48.2,89L48,89.2l-0.2,0.2v0
	c-0.3,0.3-0.6,0.6-1,0.9c-0.7,0.6-1.5,1-2.4,1.3c-1.7,0.7-3.7,0.8-5.5,0.3c-3.5-0.9-6.2-3.8-6.8-7.4c-0.5,0.1-1.1,0.2-1.6,0.2
	c-4.4,0.2-8.3-2.8-9.4-7c0-0.1,0-0.2-0.1-0.3l0,0c-4.6,1.2-9.4-1.2-11.1-5.6C9.4,70.6,9.2,69.1,9.3,67.6L9.3,67.6z M29.8,69.9
	c-1,1.2-2.1,2.5-3.2,3.7l-0.8,0.8c-0.1,1.2,0.3,2.4,1.1,3.3c0.8,0.9,1.9,1.4,3.1,1.5c0.9,0,1.9-0.2,2.7-0.7c0.1-0.1,0.2-0.1,0.3-0.2
	c0.1-0.3,0.3-0.6,0.5-0.9c0.3-0.5,0.7-1,1.1-1.4c0.4-0.4,0.6-0.6,0.9-0.9l0.9-0.9l0.4-0.4l0.2-0.2l0.3-0.3c0.2-0.2,0.4-0.3,0.6-0.4
	c-0.1-0.2-0.1-0.4,0-0.5l0,0c0.7-1,0.8-2.3,0.3-3.4c-0.3-0.6-0.7-1-1.2-1.4c-0.5-0.4-1-0.6-1.6-0.6c-0.6-0.1-1.2,0-1.8,0.2
	c-0.3,0.1-0.6,0.2-0.8,0.4c-0.3,0.2-0.7,0.4-0.9,0.7C31.3,68.8,30.6,69.3,29.8,69.9L29.8,69.9z M20.7,60.7c-0.3,0.2-0.6,0.5-0.9,0.7
	L19.4,62l-0.7,0.8c-0.1,0.1-0.2,0.2-0.4,0.4l-0.6,0.6c-0.8,0.7-1.8,1.3-2.9,1.7c-0.9,1.5-0.8,3.4,0.2,4.9c1,1.5,2.8,2.1,4.6,1.7
	c0.5-0.1,1-0.3,1.4-0.6c0.1-0.1,0.2-0.1,0.3-0.2c0.1-0.1,0.2-0.1,0.4-0.3l0.3-0.3c0.1-0.2,0.2-0.3,0.3-0.5c0.3-0.6,0.7-1.1,1.2-1.6
	l0.3-0.3L24,68l0.5-0.5c0.7-0.7,1.3-1.3,2-1.9l1-0.9l0.5-0.5l0.2-0.2l0.3-0.3l0.1-0.1c-0.1-0.2-0.1-0.4,0-0.6c0.8-1.1,0.8-2.7,0-3.8
	c-0.8-1.1-2.1-1.8-3.5-1.6c-0.7,0.1-1.3,0.3-1.8,0.8l-0.2,0.2c-0.1,0-0.2,0.2-0.3,0.3l-0.7,0.6L20.7,60.7z M11.4,60.5
	c0.5,0,1-0.1,1.6-0.2c1.4-1.4,2.9-2.8,4.4-4.2l1.1-1l0.6-0.5l0.2-0.2v-0.2c-0.1-0.2-0.1-0.4,0-0.5l0,0c0.7-1,0.9-2.3,0.3-3.4
	c-0.5-1.1-1.6-1.9-2.8-2c-0.6-0.1-1.2,0-1.8,0.2c-0.3,0.1-0.6,0.2-0.8,0.4c-0.3,0.2-0.7,0.4-0.9,0.7c-0.9,0.7-1.7,1.4-2.6,2
	c-0.4,0.3-0.9,0.7-1.3,1c-0.4,0.3-1,0.7-1.2,0.9c-1,1.4-1.2,3.2-0.4,4.7C8.5,59.6,9.9,60.5,11.4,60.5L11.4,60.5z"/>
</svg>
