<?xml version="1.0" encoding="utf-8"?>
<!-- Generator: Adobe Illustrator 22.0.1, SVG Export Plug-In . SVG Version: 6.00 Build 0)  -->
<svg version="1.1" id="Layer_1" xmlns="http://www.w3.org/2000/svg" xmlns:xlink="http://www.w3.org/1999/xlink" x="0px" y="0px"
	 viewBox="0 0 100 100" style="enable-background:new 0 0 100 100;" xml:space="preserve">
<style type="text/css">
	.st0{fill:#808080;}
</style>
<g>
	<path class="st0" d="M22.3,34.9l-7.4-1.3c-1.8-0.3-3.7,0.1-5.3,1.1c-1.5,1.1-2.6,2.7-2.9,4.6l-1.1,6.2c-0.7,3.8,1.9,7.5,5.7,8.2
		l7.4,1.3c0.4,0.1,0.8,0.4,0.8,0.8c0.1,0.4,0,0.8-0.3,1.1l-6.8,5.8v0C9.7,65,9.2,69,11.3,72l4.1,5.8c2.1,3,6.1,3.9,9.2,2.1l7.8-4.3
		c0.3-0.2,0.7-0.2,1.1,0l0.1,0.1c0.3,0.2,0.5,0.6,0.4,1l-1.3,7.4v0c-0.3,1.8,0.1,3.7,1.1,5.3c1.1,1.5,2.7,2.6,4.6,2.9l6.2,1.1
		c1.8,0.3,3.7-0.1,5.3-1.1c1.5-1.1,2.6-2.7,2.9-4.6l1.4-7.4c0.1-0.4,0.3-0.7,0.7-0.8h0.1c0.4-0.1,0.8,0,1.1,0.3l5.8,6.8h0
		c2.4,2.7,6.4,3.2,9.4,1.2l5.8-4.1c3-2.1,3.9-6.1,2.1-9.2l-4.3-7.8c-0.2-0.4-0.2-0.8,0.1-1.1c0.2-0.3,0.6-0.5,1-0.4l7.4,1.3h0
		c1.8,0.3,3.7-0.1,5.3-1.1c1.5-1.1,2.6-2.7,2.9-4.6l1.1-6.2c0.7-3.8-1.9-7.5-5.7-8.2L79.3,45c-0.4-0.1-0.7-0.3-0.8-0.7v-0.1
		c-0.1-0.4,0-0.8,0.3-1.1l6.8-5.8v0c2.7-2.4,3.2-6.4,1.2-9.4l-4.1-5.8c-2.1-3-6.1-3.9-9.2-2.1l-7.8,4.3c-0.3,0.2-0.7,0.2-1.1,0
		l-0.1-0.1c-0.3-0.2-0.5-0.6-0.4-1l1.3-7.4v0c0.3-1.8-0.1-3.7-1.1-5.3c-1.1-1.5-2.7-2.6-4.6-2.9l-6.2-1.2c-1.8-0.3-3.7,0.1-5.3,1.1
		c-1.5,1.1-2.6,2.7-2.9,4.6L44,19.7c-0.1,0.4-0.3,0.7-0.7,0.8h-0.1c-0.4,0.1-0.8,0-1.1-0.3l-5.8-6.8h0C34,10.7,30,10.2,27,12.3
		l-5.8,4.1c-3,2.1-3.9,6.1-2.1,9.2l4.3,7.8c0.2,0.4,0.2,0.8-0.1,1.2C23.1,34.8,22.7,35,22.3,34.9L22.3,34.9z M28.6,30.4l-4.3-7.8
		c-0.3-0.5-0.1-1.1,0.3-1.4l5.8-4.1v0c0.4-0.3,1.1-0.3,1.4,0.2l5.8,6.8c1.7,1.9,4.3,2.8,6.8,2.3c2.8-0.6,5-2.8,5.5-5.7l1.3-7.4
		c0-0.3,0.2-0.5,0.4-0.7c0.2-0.2,0.5-0.2,0.8-0.2l6.2,1.1c0.3,0,0.5,0.2,0.7,0.4s0.2,0.5,0.2,0.8l-1.3,7.4v0
		c-0.5,2.8,0.8,5.7,3.2,7.2h0.1c2.2,1.3,4.9,1.4,7.2,0.2l7.8-4.3h0c0.5-0.3,1.1-0.1,1.4,0.3l4.1,5.8h0c0.3,0.4,0.2,1.1-0.2,1.4
		l-6.7,5.8c-1.9,1.7-2.8,4.3-2.3,6.8c0.6,2.8,2.8,5,5.7,5.5l7.4,1.3c0.3,0,0.5,0.2,0.7,0.4c0.2,0.2,0.2,0.5,0.2,0.8l-1.1,6.2
		c0,0.3-0.2,0.5-0.4,0.7s-0.5,0.2-0.8,0.2l-7.4-1.3h0c-2.8-0.5-5.7,0.8-7.2,3.2c-1.3,2.2-1.4,4.9-0.2,7.2l4.3,7.8
		c0.3,0.5,0.1,1.1-0.3,1.4l-5.8,4.1c-0.4,0.3-1.1,0.2-1.4-0.2l-5.8-6.7c-1.7-1.9-4.3-2.8-6.8-2.3c-2.8,0.6-5,2.8-5.5,5.7l-1.3,7.4
		c0,0.3-0.2,0.5-0.4,0.7c-0.2,0.2-0.5,0.2-0.8,0.2l-6.2-1.1c-0.3,0-0.5-0.2-0.7-0.4s-0.2-0.5-0.2-0.8l1.3-7.4v0
		c0.5-2.8-0.8-5.7-3.2-7.2h-0.1c-2.2-1.3-4.9-1.4-7.2-0.2l-7.8,4.3c-0.5,0.3-1.1,0.1-1.4-0.3l-4.1-5.8c-0.3-0.4-0.2-1.1,0.2-1.4
		l6.8-5.8c1.9-1.7,2.8-4.3,2.3-6.8c-0.6-2.8-2.8-5-5.7-5.5l-7.4-1.3h0c-0.3,0-0.5-0.2-0.7-0.4s-0.2-0.5-0.2-0.8l1.1-6.2
		c0-0.3,0.2-0.5,0.4-0.7c0.2-0.2,0.5-0.2,0.8-0.2l7.4,1.3c2.9,0.5,5.7-0.8,7.2-3.2C29.8,35.4,29.9,32.6,28.6,30.4L28.6,30.4z"/>
	<path class="st0" d="M49,68c4.8,0,9.4-1.9,12.7-5.3c3.4-3.4,5.3-8,5.3-12.7s-1.9-9.4-5.3-12.7c-3.4-3.4-8-5.3-12.7-5.3
		s-9.4,1.9-12.7,5.3c-3.4,3.4-5.3,8-5.3,12.7s1.9,9.4,5.3,12.7C39.6,66.1,44.2,68,49,68z M49,38c4.9,0,9.2,2.9,11.1,7.4
		c1.9,4.5,0.8,9.6-2.6,13.1c-3.4,3.4-8.6,4.5-13.1,2.6C39.9,59.2,37,54.9,37,50C37,43.4,42.4,38,49,38L49,38z"/>
</g>
</svg>
