<?xml version="1.0" encoding="utf-8"?>
<!-- Generator: Adobe Illustrator 22.0.1, SVG Export Plug-In . SVG Version: 6.00 Build 0)  -->
<svg version="1.1" id="Layer_1" xmlns="http://www.w3.org/2000/svg" xmlns:xlink="http://www.w3.org/1999/xlink" x="0px" y="0px"
	 viewBox="0 0 100 100" style="enable-background:new 0 0 100 100;" xml:space="preserve">
<style type="text/css">
	.st0{fill:#808080;}
</style>
<path class="st0" d="M62.7,47.6c-4.5-3.4-8.8-4.3-12.4-5.2c-3.6-0.8-5.4-1.3-7.2-3.2c-1.8-1.8-2.8-3.9-2.7-5.8
	c0.1-2,1.2-3.5,2.2-4.5c3.7-3,9.9-2.9,13.5,0.2c0.7,0.7,1.2,1.3,1.6,2.1l11.3-1.7c-0.9-3.2-2.8-6.3-5.6-8.6
	c-2.5-2.2-5.7-3.9-9.1-4.8V5.5H43.5v10.8c-2.9,0.8-5.7,2.2-8,4.1c-0.1,0.1-0.1,0.1-0.2,0.2l-0.2,0.2c-3.7,3.4-5.7,7.7-5.9,12.3
	c-0.2,5,1.9,10,5.9,14.1c4.2,4.2,8.7,5.2,12.7,6.2c2.9,0.7,5.5,1.3,8.1,3.2c2.2,1.6,3.5,4,3.7,6.7c0.2,2.8-0.9,5.7-3.1,7.8
	c-3.7,3.4-10.1,3.4-14,0.1c-1.5-1.3-2.4-2.9-2.6-4.7L29,68c0.7,4.5,2.9,8.5,6.6,11.6c2.3,1.9,5.2,3.4,8.1,4.2v10.7h10.9V84.1
	c3.6-0.8,6.8-2.3,9.7-4.8l0.5-0.5c4.4-4.4,6.7-10.3,6.4-16.4C70.5,56.6,67.5,51,62.7,47.6L62.7,47.6z"/>
</svg>
