<?xml version="1.0" encoding="utf-8"?>
<!-- Generator: Adobe Illustrator 22.0.1, SVG Export Plug-In . SVG Version: 6.00 Build 0)  -->
<svg version="1.1" id="Layer_1" xmlns="http://www.w3.org/2000/svg" xmlns:xlink="http://www.w3.org/1999/xlink" x="0px" y="0px"
	 viewBox="0 0 22 22" style="enable-background:new 0 0 22 22;" xml:space="preserve">
<style type="text/css">
	.st0{fill:#F07A4F;}
</style>
<g>
	<path class="st0" d="M17,1.3H5c-2.2,0-4,1.8-4,4v11.4c0,2.2,1.8,4,4,4H17c2.2,0,4-1.8,4-4V5.3C21,3.1,19.2,1.3,17,1.3z M5,3.1H17
		c1.2,0,2.2,1,2.2,2.2v2.2H2.9V5.3C2.9,4.1,3.8,3.1,5,3.1z M17,18.9H5c-1.2,0-2.2-1-2.2-2.2V9.3h16.3v7.4c0,0.6-0.2,1.1-0.6,1.5
		C18.1,18.6,17.5,18.9,17,18.9z"/>
	<path class="st0" d="M15.4,11.1H6.6c-0.5,0-0.9,0.4-0.9,0.9S6.1,13,6.6,13h8.8c0.5,0,0.9-0.4,0.9-0.9S15.9,11.1,15.4,11.1z"/>
	<path class="st0" d="M6.5,6.2c0.5,0,0.9-0.4,0.9-0.9V5.1c0-0.5-0.4-0.9-0.9-0.9C6,4.1,5.6,4.6,5.6,5.1v0.2C5.6,5.7,6,6.2,6.5,6.2z"
		/>
	<path class="st0" d="M15.5,6.2c0.5,0,0.9-0.4,0.9-0.9V5.1c0-0.5-0.4-0.9-0.9-0.9c-0.5,0-0.9,0.4-0.9,0.9v0.2
		C14.6,5.7,15,6.2,15.5,6.2z"/>
	<path class="st0" d="M15.4,15.1H6.6c-0.5,0-0.9,0.4-0.9,0.9c0,0.5,0.4,0.9,0.9,0.9h8.8c0.5,0,0.9-0.4,0.9-0.9
		C16.4,15.6,15.9,15.1,15.4,15.1z"/>
</g>
</svg>
