<svg xmlns="http://www.w3.org/2000/svg" viewBox="13762 60 40 40">
  <defs>
    <style>
      .cls-1 {
        opacity: 0.5;
      }

      .cls-2 {
        fill: #fff;
        stroke: #707070;
      }

      .cls-3 {
        stroke: none;
      }

      .cls-4 {
        fill: none;
      }
    </style>
  </defs>
  <g id="close" class="cls-1" transform="translate(11940)">
    <g id="Ellipse_3" data-name="Ellipse 3" class="cls-2" transform="translate(1822 60)">
      <circle class="cls-3" cx="20" cy="20" r="20"/>
      <circle class="cls-4" cx="20" cy="20" r="19.5"/>
    </g>
    <path id="np_close_1217823_000000" d="M21.745,36.255a1.028,1.028,0,0,0,1.488,0L29,30.514l5.766,5.766a1.062,1.062,0,0,0,1.488-1.514L30.514,29l5.766-5.766a1.071,1.071,0,1,0-1.514-1.514L29,27.486l-5.766-5.74a1.071,1.071,0,0,0-1.514,1.514L27.485,29l-5.74,5.766a1.029,1.029,0,0,0,0,1.488Z" transform="translate(1813.6 50.599)"/>
  </g>
</svg>
