<?xml version="1.0" encoding="utf-8"?>
<!-- Generator: Adobe Illustrator 22.0.1, SVG Export Plug-In . SVG Version: 6.00 Build 0)  -->
<svg version="1.1" id="Layer_1" xmlns="http://www.w3.org/2000/svg" xmlns:xlink="http://www.w3.org/1999/xlink" x="0px" y="0px"
	 viewBox="0 0 100 100" style="enable-background:new 0 0 100 100;" xml:space="preserve">
<style type="text/css">
	.st0{fill:#808080;}
</style>
<g>
	<path class="st0" d="M71.2,16.4h-3.8v-3.9c0-1.6-1.3-2.9-2.9-2.9h-6.1C56.6,5.9,53,3.6,49,3.6s-7.6,2.3-9.3,5.9h-6.2
		c-1.6,0-2.9,1.3-2.9,2.9v3.9h-3.7c-7.1,0-12.8,5.7-12.8,12.8v54.4c0,7.1,5.7,12.8,12.8,12.8h44.4c7.1,0,12.8-5.7,12.8-12.8V29.2
		C84,22.1,78.3,16.4,71.2,16.4L71.2,16.4z M36.5,15.4h5.3c1.4,0,2.6-1,2.9-2.4c0.3-2.2,2.2-3.8,4.4-3.8c2.2,0,4,1.6,4.4,3.8
		c0.3,1.4,1.5,2.3,2.8,2.4h5.3v7.4H36.4L36.5,15.4z M78.1,83.5c0,1.8-0.7,3.6-2,4.9c-1.3,1.3-3,2-4.9,2H26.8c-3.8,0-6.9-3.1-6.9-6.9
		V29.2c0-3.8,3.1-6.9,6.9-6.9h3.7v3.4c0,1.6,1.3,2.9,2.9,2.9h31c1.6,0,2.9-1.3,2.9-2.9v-3.4h3.7c3.8,0,6.9,3.1,6.9,6.9L78.1,83.5z"
		/>
	<path class="st0" d="M33.1,44.8h12.2c1.6,0,2.9-1.3,2.9-2.9s-1.3-2.9-2.9-2.9H33.1c-1.6,0-2.9,1.3-2.9,2.9S31.4,44.8,33.1,44.8z"/>
	<path class="st0" d="M64.9,50.7H33.1c-1.6,0-2.9,1.3-2.9,2.9c0,1.6,1.3,2.9,2.9,2.9h31.9c1.6,0,2.9-1.3,2.9-2.9
		C67.9,52,66.6,50.7,64.9,50.7z"/>
	<path class="st0" d="M64.9,62.5H33.1c-1.6,0-2.9,1.3-2.9,2.9c0,1.6,1.3,2.9,2.9,2.9h31.9c1.6,0,2.9-1.3,2.9-2.9
		C67.9,63.8,66.6,62.5,64.9,62.5z"/>
	<path class="st0" d="M64.9,74.3H33.1c-1.6,0-2.9,1.3-2.9,2.9c0,1.6,1.3,2.9,2.9,2.9h31.9c1.6,0,2.9-1.3,2.9-2.9
		C67.9,75.6,66.6,74.3,64.9,74.3z"/>
</g>
</svg>
