<svg xmlns="http://www.w3.org/2000/svg" viewBox="12342 207 22 18.165">
  <defs>
    <style>
      .cls-1 {
        fill: #f07a4f;
      }
    </style>
  </defs>
  <g id="np_right-align_1372513_000000" transform="translate(12321.672 181.5)">
    <path id="Path_6" data-name="Path 6" class="cls-1" d="M49.655,38.5H35.811a1.483,1.483,0,0,0,0,2.966H49.655a1.483,1.483,0,1,0,0-2.966Z" transform="translate(-8.81 -8.181)"/>
    <path id="Path_7" data-name="Path 7" class="cls-1" d="M21.811,28.466H40.845a1.483,1.483,0,0,0,0-2.966H21.811a1.483,1.483,0,0,0,0,2.966Z" transform="translate(0 0)"/>
    <path id="Path_8" data-name="Path 8" class="cls-1" d="M21.811,55.466H40.845a1.483,1.483,0,0,0,0-2.966H21.811a1.483,1.483,0,1,0,0,2.966Z" transform="translate(0 -16.991)"/>
    <path id="Path_9" data-name="Path 9" class="cls-1" d="M54.689,66.5H43.811a1.483,1.483,0,1,0,0,2.966H54.689a1.483,1.483,0,1,0,0-2.966Z" transform="translate(-13.844 -25.8)"/>
  </g>
</svg>
