<svg xmlns="http://www.w3.org/2000/svg" viewBox="4438 172 18 14.284">
  <defs>
    <style>
      .cls-1 {
        fill: #95989a;
      }
    </style>
  </defs>
  <path id="unpublished" class="cls-1" d="M23.026,21.3a1.725,1.725,0,0,1-.48,1.221c-2.781,2.76-5.662,4.161-8.583,4.161h-.2a10.264,10.264,0,0,1-2.261-.32l1.121-1.121a4.15,4.15,0,0,0,1.421.24A4.192,4.192,0,0,0,18.224,21.3a4.471,4.471,0,0,0-.24-1.4l1.98-1.98a18.311,18.311,0,0,1,2.621,2.18,1.8,1.8,0,0,1,.44,1.2Zm-9,2.78A2.774,2.774,0,0,0,16.8,21.3a1.128,1.128,0,0,0-.02-.26l-3.02,3.041h.26ZM20.945,15.2,7.642,28.5a.563.563,0,0,1-.3.08.6.6,0,0,1-.42-1.02l2.18-2.18a14.7,14.7,0,0,1-3.641-2.9,1.82,1.82,0,0,1,0-2.361c1.4-1.54,4.361-4.1,8.3-4.2a9.477,9.477,0,0,1,4,.8L20,14.48a.58.58,0,0,1,.84,0,.611.611,0,0,1,.1.721Zm-7.9,6.242c0-.04-.02-.1-.02-.14a.4.4,0,0,0-.8,0,1.588,1.588,0,0,0,.18.76Zm3.481-3.481A4.171,4.171,0,0,0,10.682,23.8l1-1a2.78,2.78,0,0,1,3.841-3.841Z" transform="translate(4432.975 157.7)"/>
</svg>
